﻿[
  {
    "Id": "1",
    "TeamId": "1",
    "ChallengeId": "1"
  },
  {
    "Id": "2",
    "TeamId": "1",
    "ChallengeId": "2"
  },
  {
    "Id": "3",
    "TeamId": "1",
    "ChallengeId": "3"
  },
  {
    "Id": "4",
    "TeamId": "2",
    "ChallengeId": "2"
  },
  {
    "Id": "5",
    "TeamId": "2",
    "ChallengeId": "3"
  },
  {
    "Id": "6",
    "TeamId": "2",
    "ChallengeId": "4"
  },
  {
    "Id": "7",
    "TeamId": "3",
    "ChallengeId": "3"
  },
  {
    "Id": "8",
    "TeamId": "3",
    "ChallengeId": "4"
  },
  {
    "Id": "9",
    "TeamId": "3",
    "ChallengeId": "5"
  },
  {
    "Id": "10",
    "TeamId": "14",
    "ChallengeId": "4"
  },
  {
    "Id": "11",
    "TeamId": "4",
    "ChallengeId": "5"
  },
  {
    "Id": "12",
    "TeamId": "4",
    "ChallengeId": "6"
  },
  {
    "Id": "13",
    "TeamId": "5",
    "ChallengeId": "5"
  },
  {
    "Id": "14",
    "TeamId": "5",
    "ChallengeId": "6"
  },
  {
    "Id": "15",
    "TeamId": "5",
    "ChallengeId": "7"
  },
  {
    "Id": "16",
    "TeamId": "6",
    "ChallengeId": "1"
  }
]